%YAML 1.1
%TAG !u! tag:unity3d.com,2011:
--- !u!114 &11400000
MonoBehaviour:
  m_ObjectHideFlags: 0
  m_CorrespondingSourceObject: {fileID: 0}
  m_PrefabInstance: {fileID: 0}
  m_PrefabAsset: {fileID: 0}
  m_GameObject: {fileID: 0}
  m_Enabled: 1
  m_EditorHideFlags: 0
  m_Script: {fileID: 11500000, guid: b27415c3693d402e9ce2eebfe98f824f, type: 3}
  m_Name: MarshLandsHeightMapSettings
  m_EditorClassIdentifier: 
  autoUpdate: 1
  noiseSettings:
    normalizeMode: 1
    scale: 200
    octaves: 5
    persistence: 0.48
    lacunarity: 1.6
    seed: 0
    offset: {x: 0, y: 0}
  useFalloff: 0
  heightMultiplier: 29
  heightCurve:
    serializedVersion: 2
    m_Curve:
    - serializedVersion: 3
      time: 0
      value: 0
      inSlope: 0.039085962
      outSlope: 0.039085962
      tangentMode: 0
      weightedMode: 0
      inWeight: 0
      outWeight: 0.07683073
    - serializedVersion: 3
      time: 0.21430328
      value: 0.017949617
      inSlope: 0.42593718
      outSlope: 0.42593718
      tangentMode: 0
      weightedMode: 0
      inWeight: 0.33333334
      outWeight: 0.33333334
    - serializedVersion: 3
      time: 1
      value: 1
      inSlope: 2
      outSlope: 2
      tangentMode: 0
      weightedMode: 0
      inWeight: 0
      outWeight: 0
    m_PreInfinity: 2
    m_PostInfinity: 2
    m_RotationOrder: 4
