%YAML 1.1
%TAG !u! tag:unity3d.com,2011:
--- !u!114 &11400000
MonoBehaviour:
  m_ObjectHideFlags: 0
  m_CorrespondingSourceObject: {fileID: 0}
  m_PrefabInstance: {fileID: 0}
  m_PrefabAsset: {fileID: 0}
  m_GameObject: {fileID: 0}
  m_Enabled: 1
  m_EditorHideFlags: 0
  m_Script: {fileID: 11500000, guid: 43662b74e8d04e91ab9895533024e517, type: 3}
  m_Name: MarshLandsMeshSettings
  m_EditorClassIdentifier: 
  autoUpdate: 1
  meshScale: 0.5
  useFlatShading: 0
  chunkSizeIndex: 8
  flatshadedChunkSizeIndex: 2
